%YAML 1.1
%TAG !u! tag:unity3d.com,2011:
--- !u!114 &11400000
MonoBehaviour:
  m_ObjectHideFlags: 0
  m_CorrespondingSourceObject: {fileID: 0}
  m_PrefabInstance: {fileID: 0}
  m_PrefabAsset: {fileID: 0}
  m_GameObject: {fileID: 0}
  m_Enabled: 1
  m_EditorHideFlags: 0
  m_Script: {fileID: 11500000, guid: 2f0c89afd11d7dd47b8c706e832da407, type: 3}
  m_Name: J_JupeBleu_Item
  m_EditorClassIdentifier: 
  nameItem: Jupe bleu
  image: {fileID: 21300000, guid: d31ddeb2abb0ea74ebe679ac20a792a7, type: 3}
  typeItem: 2
  typeStore: 0
  quality: 1
  rarity: 1
  luxury: 2
  nameGameObject: 5jupe
  materialsItem:
  - {fileID: 2100000, guid: 062ffe82a14b90143875959c34c187c7, type: 2}
  persistentObject:
    guid: 97ffd1598f43fc3419dd8665ad6b1909
