%YAML 1.1
%TAG !u! tag:unity3d.com,2011:
--- !u!114 &11400000
MonoBehaviour:
  m_ObjectHideFlags: 0
  m_CorrespondingSourceObject: {fileID: 0}
  m_PrefabInstance: {fileID: 0}
  m_PrefabAsset: {fileID: 0}
  m_GameObject: {fileID: 0}
  m_Enabled: 1
  m_EditorHideFlags: 0
  m_Script: {fileID: 11500000, guid: 2f0c89afd11d7dd47b8c706e832da407, type: 3}
  m_Name: J_ShortJauneFleur_Item
  m_EditorClassIdentifier: 
  nameItem: "Short jaune \xE0 fleur"
  image: {fileID: 21300000, guid: 9f396f5e03e31a741b34d4bc49d55f11, type: 3}
  typeItem: 2
  typeStore: 0
  quality: 2
  rarity: 2
  luxury: 1
  nameGameObject: 3Short
  materialsItem:
  - {fileID: 2100000, guid: 50648c53ab7bb5644b97345a527a44e9, type: 2}
  persistentObject:
    guid: c1f8c439922c90044ad1e4fbbddc875b
