%YAML 1.1
%TAG !u! tag:unity3d.com,2011:
--- !u!114 &11400000
MonoBehaviour:
  m_ObjectHideFlags: 0
  m_CorrespondingSourceObject: {fileID: 0}
  m_PrefabInstance: {fileID: 0}
  m_PrefabAsset: {fileID: 0}
  m_GameObject: {fileID: 0}
  m_Enabled: 1
  m_EditorHideFlags: 0
  m_Script: {fileID: 11500000, guid: 2f0c89afd11d7dd47b8c706e832da407, type: 3}
  m_Name: PI_Moustache1_Item
  m_EditorClassIdentifier: 
  nameItem: Moustache 1
  image: {fileID: 21300000, guid: 4a3cbac56f2c0114bb36be886605ae81, type: 3}
  typeItem: 5
  typeStore: 1
  tagObject: 2
  quality: 1
  rarity: 1
  luxury: 2
  nameGameObject: moustache1
  materialsItem:
  - {fileID: 2100000, guid: 0dffe4640297cf544879dec702f9befb, type: 2}
  persistentObject:
    guid: 53050416a41775f4b850aef6fa38796d
