%YAML 1.1
%TAG !u! tag:unity3d.com,2011:
--- !u!1 &1910073194841486202
GameObject:
  m_ObjectHideFlags: 0
  m_CorrespondingSourceObject: {fileID: 0}
  m_PrefabInstance: {fileID: 0}
  m_PrefabAsset: {fileID: 0}
  serializedVersion: 6
  m_Component:
  - component: {fileID: 1910073194841486180}
  - component: {fileID: 1910073194841486203}
  m_Layer: 0
  m_Name: Hex Grid
  m_TagString: Untagged
  m_Icon: {fileID: 0}
  m_NavMeshLayer: 0
  m_StaticEditorFlags: 4294967295
  m_IsActive: 1
--- !u!4 &1910073194841486180
Transform:
  m_ObjectHideFlags: 0
  m_CorrespondingSourceObject: {fileID: 0}
  m_PrefabInstance: {fileID: 0}
  m_PrefabAsset: {fileID: 0}
  m_GameObject: {fileID: 1910073194841486202}
  m_LocalRotation: {x: 0, y: 0, z: 0, w: 1}
  m_LocalPosition: {x: 0, y: 0, z: 0}
  m_LocalScale: {x: 1, y: 1, z: 1}
  m_Children: []
  m_Father: {fileID: 0}
  m_RootOrder: 0
  m_LocalEulerAnglesHint: {x: 0, y: 0, z: 0}
--- !u!114 &1910073194841486203
MonoBehaviour:
  m_ObjectHideFlags: 0
  m_CorrespondingSourceObject: {fileID: 0}
  m_PrefabInstance: {fileID: 0}
  m_PrefabAsset: {fileID: 0}
  m_GameObject: {fileID: 1910073194841486202}
  m_Enabled: 1
  m_EditorHideFlags: 0
  m_Script: {fileID: 11500000, guid: 414a0fc06528949a0baff4f719b04a4f, type: 3}
  m_Name: 
  m_EditorClassIdentifier: 
  cellCountX: 20
  cellCountZ: 15
  wrapping: 0
  cellPrefab: {fileID: 11422220, guid: 94c2312396697489abc866a188f80152, type: 3}
  cellLabelPrefab: {fileID: 11470134, guid: f68794ca03b6f4510b9a5bd6ee9ba2f4, type: 3}
  chunkPrefab: {fileID: 114000010052569294, guid: 7622d007cafd044a1b1189c0b93d2912,
    type: 3}
  unitPrefab: {fileID: 1042411952751278043, guid: c9613f73122b56347b2db3fc7cbb956a,
    type: 3}
  noiseSource: {fileID: 2800000, guid: 38701cdeb1fb9427cbb585f917aa59cb, type: 3}
  seed: 1234
