%YAML 1.1
%TAG !u! tag:unity3d.com,2011:
--- !u!114 &11400000
MonoBehaviour:
  m_ObjectHideFlags: 0
  m_CorrespondingSourceObject: {fileID: 0}
  m_PrefabInstance: {fileID: 0}
  m_PrefabAsset: {fileID: 0}
  m_GameObject: {fileID: 0}
  m_Enabled: 1
  m_EditorHideFlags: 0
  m_Script: {fileID: 11500000, guid: f611d797432e3f846885b2b12fde5f35, type: 3}
  m_Name: DataDemo_GraphDataLink
  m_EditorClassIdentifier: 
  data:
    questionInfo: GM_ListEnd
    questionType: 0
    questionImage: {fileID: 0}
    audioClip: {fileID: 0}
    videoClip: {fileID: 0}
    options: []
    answer: 
