%YAML 1.1
%TAG !u! tag:unity3d.com,2011:
--- !u!114 &11400000
MonoBehaviour:
  m_ObjectHideFlags: 0
  m_CorrespondingSourceObject: {fileID: 0}
  m_PrefabInstance: {fileID: 0}
  m_PrefabAsset: {fileID: 0}
  m_GameObject: {fileID: 0}
  m_Enabled: 1
  m_EditorHideFlags: 0
  m_Script: {fileID: 11500000, guid: 7a4a65197865b6b48aa4abe755108882, type: 3}
  m_Name: DataDemo_QuestPlayerStateDataStruct
  m_EditorClassIdentifier: 
  pseudo: essai2
  currentTheme: FinanceV2Theme
  themeStates:
    m_keys:
    - EmptyTheme
    - FinanceV2Theme
    m_values:
    - lastTag: essai2_emptytheme
    - lastTag: essai2_financev2theme
