%YAML 1.1
%TAG !u! tag:unity3d.com,2011:
--- !u!114 &11400000
MonoBehaviour:
  m_ObjectHideFlags: 0
  m_CorrespondingSourceObject: {fileID: 0}
  m_PrefabInstance: {fileID: 0}
  m_PrefabAsset: {fileID: 0}
  m_GameObject: {fileID: 0}
  m_Enabled: 1
  m_EditorHideFlags: 0
  m_Script: {fileID: 11500000, guid: fc54066e474b544438dd27673a614d89, type: 3}
  m_Name: CompanionAIDataNodeDialogueIntro
  m_EditorClassIdentifier: 
  tag: '#CompanionAI_Intro'
  data:
    question: As-tu besoin d'aide ?
    questionType: 0
    options:
    - non
    - oui
    answer: 
